{
  "status": "ok",
  "name": "Market Price (USD)",
  "unit": "USD",
  "period": "day",
  "description": "Average USD market price across major bitcoin exchanges.",
  "values": [
    {
      "x": 1282003200,
      "y": 0.010985714285714284
    },
    {
      "x": 1282176000,
      "y": 0.03138571428571428
    },
    {
      "x": 1282348800,
      "y": 0.050471285714285705
    },
    {
      "x": 1282521600,
      "y": 0.058399857142857135
    },
    {
      "x": 1282694400,
      "y": 0.05705542857142857
    },
    {
      "x": 1282867200,
      "y": 0.05675542857142857
    },
    {
      "x": 1283040000,
      "y": 0.056384000000000004
    },
    {
      "x": 1283212800,
      "y": 0.056466999999999996
    },
    {
      "x": 1283385600,
      "y": 0.055938571428571435
    },
    {
      "x": 1283558400,
      "y": 0.05521000000000001
    },
    {
      "x": 1283731200,
      "y": 0.05420000000000002
    },
    {
      "x": 1283904000,
      "y": 0.053637142857142876
    },
    {
      "x": 1284076800,
      "y": 0.0535957142857143
    },
    {
      "x": 1284249600,
      "y": 0.053609857142857154
    },
    {
      "x": 1284422400,
      "y": 0.05393128571428573
    },
    {
      "x": 1284595200,
      "y": 0.07000128571428574
    },
    {
      "x": 1284768000,
      "y": 0.06925857142857145
    },
    {
      "x": 1284940800,
      "y": 0.06924271428571431
    },
    {
      "x": 1285113600,
      "y": 0.053414142857142896
    },
    {
      "x": 1285286400,
      "y": 0.05398700000000005
    },
    {
      "x": 1285459200,
      "y": 0.05379842857142861
    },
    {
      "x": 1285632000,
      "y": 0.05362928571428574
    },
    {
      "x": 1285804800,
      "y": 0.0533864285714286
    },
    {
      "x": 1285977600,
      "y": 0.05328914285714288
    },
    {
      "x": 1286150400,
      "y": 0.053072571428571455
    },
    {
      "x": 1286323200,
      "y": 0.053386857142857166
    },
    {
      "x": 1286496000,
      "y": 0.05735857142857144
    },
    {
      "x": 1286668800,
      "y": 0.07401714285714286
    },
    {
      "x": 1286841600,
      "y": 0.08870142857142857
    },
    {
      "x": 1287014400,
      "y": 0.09558714285714286
    },
    {
      "x": 1287187200,
      "y": 0.09387142857142856
    },
    {
      "x": 1287360000,
      "y": 0.09078571428571428
    },
    {
      "x": 1287532800,
      "y": 0.09155714285714285
    },
    {
      "x": 1287705600,
      "y": 0.08984285714285714
    },
    {
      "x": 1287878400,
      "y": 0.10291571428571428
    },
    {
      "x": 1288051200,
      "y": 0.1221442857142857
    },
    {
      "x": 1288224000,
      "y": 0.14557428571428568
    },
    {
      "x": 1288396800,
      "y": 0.1575585714285714
    },
    {
      "x": 1288569600,
      "y": 0.16563
    },
    {
      "x": 1288742400,
      "y": 0.1785571428571429
    },
    {
      "x": 1288915200,
      "y": 0.19184428571428574
    },
    {
      "x": 1289088000,
      "y": 0.2480584285714286
    },
    {
      "x": 1289260800,
      "y": 0.28181557142857144
    },
    {
      "x": 1289433600,
      "y": 0.2862141428571429
    },
    {
      "x": 1289606400,
      "y": 0.25207142857142867
    },
    {
      "x": 1289779200,
      "y": 0.23421428571428582
    },
    {
      "x": 1289952000,
      "y": 0.24221428571428585
    },
    {
      "x": 1290124800,
      "y": 0.2453570000000001
    },
    {
      "x": 1290297600,
      "y": 0.2449570000000001
    },
    {
      "x": 1290470400,
      "y": 0.24598557142857144
    },
    {
      "x": 1290643200,
      "y": 0.24498285714285717
    },
    {
      "x": 1290816000,
      "y": 0.2441827142857143
    },
    {
      "x": 1290988800,
      "y": 0.24328414285714287
    },
    {
      "x": 1291161600,
      "y": 0.2338584285714286
    },
    {
      "x": 1291334400,
      "y": 0.22413000000000005
    },
    {
      "x": 1291507200,
      "y": 0.21417142857142862
    },
    {
      "x": 1291680000,
      "y": 0.20717142857142862
    },
    {
      "x": 1291852800,
      "y": 0.20448571428571435
    },
    {
      "x": 1292025600,
      "y": 0.19557142857142862
    },
    {
      "x": 1292198400,
      "y": 0.19621142857142865
    },
    {
      "x": 1292371200,
      "y": 0.19482571428571435
    },
    {
      "x": 1292544000,
      "y": 0.20474000000000006
    },
    {
      "x": 1292716800,
      "y": 0.21094285714285718
    },
    {
      "x": 1292889600,
      "y": 0.22055571428571433
    },
    {
      "x": 1293062400,
      "y": 0.22285571428571432
    },
    {
      "x": 1293235200,
      "y": 0.22301285714285712
    },
    {
      "x": 1293408000,
      "y": 0.2217141428571428
    },
    {
      "x": 1293580800,
      "y": 0.23085699999999992
    },
    {
      "x": 1293753600,
      "y": 0.24514242857142848
    },
    {
      "x": 1293926400,
      "y": 0.25442742857142847
    },
    {
      "x": 1294099200,
      "y": 0.25712699999999994
    },
    {
      "x": 1294272000,
      "y": 0.25684128571428566
    },
    {
      "x": 1294444800,
      "y": 0.2632561428571428
    },
    {
      "x": 1294617600,
      "y": 0.2706991428571428
    },
    {
      "x": 1294790400,
      "y": 0.2822708571428571
    },
    {
      "x": 1294963200,
      "y": 0.31228542857142855
    },
    {
      "x": 1295136000,
      "y": 0.33342857142857146
    },
    {
      "x": 1295308800,
      "y": 0.34882714285714295
    },
    {
      "x": 1295481600,
      "y": 0.32777000000000006
    },
    {
      "x": 1295654400,
      "y": 0.3377557142857143
    },
    {
      "x": 1295827200,
      "y": 0.3521142857142857
    },
    {
      "x": 1296000000,
      "y": 0.3724571428571429
    },
    {
      "x": 1296172800,
      "y": 0.37210000000000004
    },
    {
      "x": 1296345600,
      "y": 0.3776285714285715
    },
    {
      "x": 1296518400,
      "y": 0.46334285714285717
    },
    {
      "x": 1296691200,
      "y": 0.5665855714285714
    },
    {
      "x": 1296864000,
      "y": 0.6909712857142857
    },
    {
      "x": 1297036800,
      "y": 0.7446641428571429
    },
    {
      "x": 1297209600,
      "y": 0.7796500000000001
    },
    {
      "x": 1297382400,
      "y": 0.823907142857143
    },
    {
      "x": 1297555200,
      "y": 0.873057142857143
    },
    {
      "x": 1297728000,
      "y": 0.9202000000000002
    },
    {
      "x": 1297900800,
      "y": 0.9193257142857144
    },
    {
      "x": 1298073600,
      "y": 0.9050814285714286
    },
    {
      "x": 1298246400,
      "y": 0.8578665714285714
    },
    {
      "x": 1298419200,
      "y": 0.817740714285714
    },
    {
      "x": 1298592000,
      "y": 0.8005564285714282
    },
    {
      "x": 1298764800,
      "y": 0.8168522857142853
    },
    {
      "x": 1298937600,
      "y": 0.8310997142857139
    },
    {
      "x": 1299110400,
      "y": 0.8225139999999997
    },
    {
      "x": 1299283200,
      "y": 0.8095902857142855
    },
    {
      "x": 1299456000,
      "y": 0.7953351428571427
    },
    {
      "x": 1299628800,
      "y": 0.7812138571428568
    },
    {
      "x": 1299801600,
      "y": 0.7733279999999998
    },
    {
      "x": 1299974400,
      "y": 0.7761644285714283
    },
    {
      "x": 1300147200,
      "y": 0.7774407142857139
    },
    {
      "x": 1300320000,
      "y": 0.7727407142857138
    },
    {
      "x": 1300492800,
      "y": 0.7492145714285708
    },
    {
      "x": 1300665600,
      "y": 0.7175595714285709
    },
    {
      "x": 1300838400,
      "y": 0.7003661428571424
    },
    {
      "x": 1301011200,
      "y": 0.7168494285714281
    },
    {
      "x": 1301184000,
      "y": 0.7486351428571424
    },
    {
      "x": 1301356800,
      "y": 0.7497571428571425
    },
    {
      "x": 1301529600,
      "y": 0.7220399999999996
    },
    {
      "x": 1301702400,
      "y": 0.6929171428571423
    },
    {
      "x": 1301875200,
      "y": 0.6832457142857137
    },
    {
      "x": 1302048000,
      "y": 0.6635119999999994
    },
    {
      "x": 1302220800,
      "y": 0.6591919999999994
    },
    {
      "x": 1302393600,
      "y": 0.6501489999999995
    },
    {
      "x": 1302566400,
      "y": 0.6815998571428566
    },
    {
      "x": 1302739200,
      "y": 0.7349284285714281
    },
    {
      "x": 1302912000,
      "y": 0.8289985714285709
    },
    {
      "x": 1303084800,
      "y": 0.915698571428571
    },
    {
      "x": 1303257600,
      "y": 0.9796842857142853
    },
    {
      "x": 1303430400,
      "y": 1.0289571428571427
    },
    {
      "x": 1303603200,
      "y": 1.2023999999999997
    },
    {
      "x": 1303776000,
      "y": 1.3514142857142855
    },
    {
      "x": 1303948800,
      "y": 1.6471428571428568
    },
    {
      "x": 1304121600,
      "y": 2.125851428571428
    },
    {
      "x": 1304294400,
      "y": 2.7192799999999995
    },
    {
      "x": 1304467200,
      "y": 3.0721371428571427
    },
    {
      "x": 1304640000,
      "y": 3.107828571428571
    },
    {
      "x": 1304812800,
      "y": 3.1099714285714284
    },
    {
      "x": 1304985600,
      "y": 3.4052571428571423
    },
    {
      "x": 1305158400,
      "y": 4.107425714285714
    },
    {
      "x": 1305331200,
      "y": 5.5002828571428575
    },
    {
      "x": 1305504000,
      "y": 6.630711428571429
    },
    {
      "x": 1305676800,
      "y": 7.237572857142858
    },
    {
      "x": 1305849600,
      "y": 6.821858571428572
    },
    {
      "x": 1306022400,
      "y": 6.273801428571429
    },
    {
      "x": 1306195200,
      "y": 6.043371428571429
    },
    {
      "x": 1306368000,
      "y": 6.386228571428572
    },
    {
      "x": 1306540800,
      "y": 7.020714285714286
    },
    {
      "x": 1306713600,
      "y": 7.427742857142858
    },
    {
      "x": 1306886400,
      "y": 7.720714285714286
    },
    {
      "x": 1307059200,
      "y": 8.751428571428573
    },
    {
      "x": 1307232000,
      "y": 11.452685714285714
    },
    {
      "x": 1307404800,
      "y": 14.224
    },
    {
      "x": 1307577600,
      "y": 19.729699999999998
    },
    {
      "x": 1307750400,
      "y": 23.814271428571427
    },
    {
      "x": 1307923200,
      "y": 25.414271428571425
    },
    {
      "x": 1308096000,
      "y": 22.211428571428566
    },
    {
      "x": 1308268800,
      "y": 18.54711428571428
    },
    {
      "x": 1308441600,
      "y": 16.630914285714276
    },
    {
      "x": 1308614400,
      "y": 15.468057142857134
    },
    {
      "x": 1308787200,
      "y": 14.282371428571418
    },
    {
      "x": 1308960000,
      "y": 14.035728571428562
    },
    {
      "x": 1309132800,
      "y": 14.415729999999993
    },
    {
      "x": 1309305600,
      "y": 14.95430142857142
    },
    {
      "x": 1309478400,
      "y": 14.975715714285704
    },
    {
      "x": 1309651200,
      "y": 14.501428571428564
    },
    {
      "x": 1309824000,
      "y": 13.934285714285707
    },
    {
      "x": 1309996800,
      "y": 13.684285714285709
    },
    {
      "x": 1310169600,
      "y": 13.463251428571422
    },
    {
      "x": 1310342400,
      "y": 13.46752285714285
    },
    {
      "x": 1310515200,
      "y": 12.90179142857142
    },
    {
      "x": 1310688000,
      "y": 12.581397142857133
    },
    {
      "x": 1310860800,
      "y": 12.178554285714277
    },
    {
      "x": 1311033600,
      "y": 12.12144285714285
    },
    {
      "x": 1311206400,
      "y": 12.061285714285706
    },
    {
      "x": 1311379200,
      "y": 12.032557142857135
    },
    {
      "x": 1311552000,
      "y": 12.079671285714278
    },
    {
      "x": 1311724800,
      "y": 12.15839985714285
    },
    {
      "x": 1311897600,
      "y": 12.149985571428564
    },
    {
      "x": 1312070400,
      "y": 12.147128571428565
    },
    {
      "x": 1312243200,
      "y": 11.928571428571422
    },
    {
      "x": 1312416000,
      "y": 11.469664899999994
    },
    {
      "x": 1312588800,
      "y": 10.59110775714285
    },
    {
      "x": 1312761600,
      "y": 9.403950614285709
    },
    {
      "x": 1312934400,
      "y": 9.14857142857142
    },
    {
      "x": 1313107200,
      "y": 8.840157632857135
    },
    {
      "x": 1313280000,
      "y": 9.211586204285705
    },
    {
      "x": 1313452800,
      "y": 9.278729061428564
    },
    {
      "x": 1313625600,
      "y": 9.647142857142848
    },
    {
      "x": 1313798400,
      "y": 9.978285714285708
    },
    {
      "x": 1313971200,
      "y": 9.95271428571428
    },
    {
      "x": 1314144000,
      "y": 9.941285714285709
    },
    {
      "x": 1314316800,
      "y": 9.606648571428565
    },
    {
      "x": 1314489600,
      "y": 8.963648571428564
    },
    {
      "x": 1314662400,
      "y": 8.355278571428563
    },
    {
      "x": 1314835200,
      "y": 7.810107142814278
    },
    {
      "x": 1315008000,
      "y": 7.613349999957135
    },
    {
      "x": 1315180800,
      "y": 7.3890057140714225
    },
    {
      "x": 1315353600,
      "y": 7.075712856971423
    },
    {
      "x": 1315526400,
      "y": 6.653197142685709
    },
    {
      "x": 1315699200,
      "y": 6.160042857171423
    },
    {
      "x": 1315872000,
      "y": 5.885001428599995
    },
    {
      "x": 1316044800,
      "y": 5.517131428728567
    },
    {
      "x": 1316217600,
      "y": 5.037571428699996
    },
    {
      "x": 1316390400,
      "y": 4.647428571557139
    },
    {
      "x": 1316563200,
      "y": 4.847662857142854
    },
    {
      "x": 1316736000,
      "y": 5.0311685714285685
    },
    {
      "x": 1316908800,
      "y": 5.111168571428569
    },
    {
      "x": 1317081600,
      "y": 4.755265714285711
    },
    {
      "x": 1317254400,
      "y": 4.506902857142855
    },
    {
      "x": 1317427200,
      "y": 4.434045714285712
    },
    {
      "x": 1317600000,
      "y": 4.383351428571426
    },
    {
      "x": 1317772800,
      "y": 4.420065714285711
    },
    {
      "x": 1317945600,
      "y": 4.295779999999997
    },
    {
      "x": 1318118400,
      "y": 4.11685714285714
    },
    {
      "x": 1318291200,
      "y": 3.8803399999999963
    },
    {
      "x": 1318464000,
      "y": 3.7197857142857105
    },
    {
      "x": 1318636800,
      "y": 3.602864285714282
    },
    {
      "x": 1318809600,
      "y": 3.497361428599996
    },
    {
      "x": 1318982400,
      "y": 3.0536285714571387
    },
    {
      "x": 1319155200,
      "y": 2.621552857171424
    },
    {
      "x": 1319328000,
      "y": 2.4785728571428525
    },
    {
      "x": 1319500800,
      "y": 2.57714571428571
    },
    {
      "x": 1319673600,
      "y": 2.6894142857142818
    },
    {
      "x": 1319846400,
      "y": 2.7497242857142816
    },
    {
      "x": 1320019200,
      "y": 2.8637614285714244
    },
    {
      "x": 1320192000,
      "y": 2.9872042857142813
    },
    {
      "x": 1320364800,
      "y": 2.906571428571424
    },
    {
      "x": 1320537600,
      "y": 2.795391428571424
    },
    {
      "x": 1320710400,
      "y": 2.7166628571428526
    },
    {
      "x": 1320883200,
      "y": 2.6589857142857096
    },
    {
      "x": 1321056000,
      "y": 2.6375571428571383
    },
    {
      "x": 1321228800,
      "y": 2.621857142857138
    },
    {
      "x": 1321401600,
      "y": 2.5041428571428526
    },
    {
      "x": 1321574400,
      "y": 2.344184285714281
    },
    {
      "x": 1321747200,
      "y": 2.1541842857142814
    },
    {
      "x": 1321920000,
      "y": 2.0613271428571385
    },
    {
      "x": 1322092800,
      "y": 2.0398571428571386
    },
    {
      "x": 1322265600,
      "y": 2.081607142857138
    },
    {
      "x": 1322438400,
      "y": 2.1381057142857096
    },
    {
      "x": 1322611200,
      "y": 2.2952485714285666
    },
    {
      "x": 1322784000,
      "y": 2.464784285714281
    },
    {
      "x": 1322956800,
      "y": 2.619712857142852
    },
    {
      "x": 1323129600,
      "y": 2.625427142857138
    },
    {
      "x": 1323302400,
      "y": 2.6117128571428525
    },
    {
      "x": 1323475200,
      "y": 2.6058571428571384
    },
    {
      "x": 1323648000,
      "y": 2.7119099999999956
    },
    {
      "x": 1323820800,
      "y": 2.7683385714285667
    },
    {
      "x": 1323993600,
      "y": 2.817524285714281
    },
    {
      "x": 1324166400,
      "y": 2.7828999999999953
    },
    {
      "x": 1324339200,
      "y": 3.0148085714285666
    },
    {
      "x": 1324512000,
      "y": 3.254621428571424
    },
    {
      "x": 1324684800,
      "y": 3.4574642857142805
    },
    {
      "x": 1324857600,
      "y": 3.5291685714285665
    },
    {
      "x": 1325030400,
      "y": 3.550152857142852
    },
    {
      "x": 1325203200,
      "y": 3.654452857142852
    },
    {
      "x": 1325376000,
      "y": 3.8676971428571383
    },
    {
      "x": 1325548800,
      "y": 4.230699999999995
    },
    {
      "x": 1325721600,
      "y": 4.712885714285711
    },
    {
      "x": 1325894400,
      "y": 5.290108571428567
    },
    {
      "x": 1326067200,
      "y": 5.805837142857138
    },
    {
      "x": 1326240000,
      "y": 6.09479428571428
    },
    {
      "x": 1326412800,
      "y": 6.040484284242852
    },
    {
      "x": 1326585600,
      "y": 5.946197141385709
    },
    {
      "x": 1326758400,
      "y": 5.966322855671424
    },
    {
      "x": 1326931200,
      "y": 5.879838571428568
    },
    {
      "x": 1327104000,
      "y": 5.79269714285714
    },
    {
      "x": 1327276800,
      "y": 5.603549999999997
    },
    {
      "x": 1327449600,
      "y": 5.562835714285711
    },
    {
      "x": 1327622400,
      "y": 5.385549999999997
    },
    {
      "x": 1327795200,
      "y": 5.194592857142854
    },
    {
      "x": 1327968000,
      "y": 4.949592857142853
    },
    {
      "x": 1328140800,
      "y": 4.942307142857138
    },
    {
      "x": 1328313600,
      "y": 5.0337142857142805
    },
    {
      "x": 1328486400,
      "y": 5.105499999999996
    },
    {
      "x": 1328659200,
      "y": 5.065698571428568
    },
    {
      "x": 1328832000,
      "y": 5.005305714285711
    },
    {
      "x": 1329004800,
      "y": 5.0192342857142815
    },
    {
      "x": 1329177600,
      "y": 4.985035714285709
    },
    {
      "x": 1329350400,
      "y": 4.683382857142852
    },
    {
      "x": 1329523200,
      "y": 4.314344285714281
    },
    {
      "x": 1329696000,
      "y": 3.9619628571428533
    },
    {
      "x": 1329868800,
      "y": 3.8707799999999963
    },
    {
      "x": 1330041600,
      "y": 3.993045714285711
    },
    {
      "x": 1330214400,
      "y": 4.166959999999996
    },
    {
      "x": 1330387200,
      "y": 4.3276171428571395
    },
    {
      "x": 1330560000,
      "y": 4.293562857142854
    },
    {
      "x": 1330732800,
      "y": 4.250434285714283
    },
    {
      "x": 1330905600,
      "y": 4.22757714285714
    },
    {
      "x": 1331078400,
      "y": 4.261261428571425
    },
    {
      "x": 1331251200,
      "y": 4.287128571428568
    },
    {
      "x": 1331424000,
      "y": 4.285699999999996
    },
    {
      "x": 1331596800,
      "y": 4.321292857142853
    },
    {
      "x": 1331769600,
      "y": 4.456221428571425
    },
    {
      "x": 1331942400,
      "y": 4.580478571428568
    },
    {
      "x": 1332115200,
      "y": 4.626297142857139
    },
    {
      "x": 1332288000,
      "y": 4.477097142857139
    },
    {
      "x": 1332460800,
      "y": 4.321411428571426
    },
    {
      "x": 1332633600,
      "y": 4.1416999999999975
    },
    {
      "x": 1332806400,
      "y": 4.08854714285714
    },
    {
      "x": 1332979200,
      "y": 4.08809571428571
    },
    {
      "x": 1333152000,
      "y": 4.137824285714282
    },
    {
      "x": 1333324800,
      "y": 4.213691428571425
    },
    {
      "x": 1333497600,
      "y": 4.252714285714283
    },
    {
      "x": 1333670400,
      "y": 4.270551428571425
    },
    {
      "x": 1333843200,
      "y": 4.237837142857139
    },
    {
      "x": 1334016000,
      "y": 4.19783714285714
    },
    {
      "x": 1334188800,
      "y": 4.193442857142855
    },
    {
      "x": 1334361600,
      "y": 4.221248571428569
    },
    {
      "x": 1334534400,
      "y": 4.2589471428571395
    },
    {
      "x": 1334707200,
      "y": 4.305542857142854
    },
    {
      "x": 1334880000,
      "y": 4.360594285714281
    },
    {
      "x": 1335052800,
      "y": 4.481281428571425
    },
    {
      "x": 1335225600,
      "y": 4.512384285714282
    },
    {
      "x": 1335398400,
      "y": 4.509527142857141
    },
    {
      "x": 1335571200,
      "y": 4.430398571428569
    },
    {
      "x": 1335744000,
      "y": 4.373314285714283
    },
    {
      "x": 1335916800,
      "y": 4.350299999999997
    },
    {
      "x": 1336089600,
      "y": 4.361614285714283
    },
    {
      "x": 1336262400,
      "y": 4.394485714285711
    },
    {
      "x": 1336435200,
      "y": 4.396742857142853
    },
    {
      "x": 1336608000,
      "y": 4.380612857142853
    },
    {
      "x": 1336780800,
      "y": 4.349667142857139
    },
    {
      "x": 1336953600,
      "y": 4.326835714285711
    },
    {
      "x": 1337126400,
      "y": 4.320962857142854
    },
    {
      "x": 1337299200,
      "y": 4.354194285714283
    },
    {
      "x": 1337472000,
      "y": 4.391055714285711
    },
    {
      "x": 1337644800,
      "y": 4.403558571428568
    },
    {
      "x": 1337817600,
      "y": 4.421829999999996
    },
    {
      "x": 1337990400,
      "y": 4.422699999999996
    },
    {
      "x": 1338163200,
      "y": 4.428485714285712
    },
    {
      "x": 1338336000,
      "y": 4.419769999999997
    },
    {
      "x": 1338508800,
      "y": 4.442769999999997
    },
    {
      "x": 1338681600,
      "y": 4.47643571428571
    },
    {
      "x": 1338854400,
      "y": 4.540308571428567
    },
    {
      "x": 1339027200,
      "y": 4.617308571428567
    },
    {
      "x": 1339200000,
      "y": 4.733927142857139
    },
    {
      "x": 1339372800,
      "y": 4.78920571428571
    },
    {
      "x": 1339545600,
      "y": 4.883634285714281
    },
    {
      "x": 1339718400,
      "y": 4.991492857142852
    },
    {
      "x": 1339891200,
      "y": 5.271998571428567
    },
    {
      "x": 1340064000,
      "y": 5.463389999999995
    },
    {
      "x": 1340236800,
      "y": 5.654102857142853
    },
    {
      "x": 1340409600,
      "y": 5.69999571428571
    },
    {
      "x": 1340582400,
      "y": 5.705959999999996
    },
    {
      "x": 1340755200,
      "y": 5.642668571428567
    },
    {
      "x": 1340928000,
      "y": 5.625629999999996
    },
    {
      "x": 1341100800,
      "y": 5.6749885714285675
    },
    {
      "x": 1341273600,
      "y": 5.7475671428571395
    },
    {
      "x": 1341446400,
      "y": 5.745999999999997
    },
    {
      "x": 1341619200,
      "y": 5.75992714285714
    },
    {
      "x": 1341792000,
      "y": 5.795784285714282
    },
    {
      "x": 1341964800,
      "y": 5.963784285714282
    },
    {
      "x": 1342137600,
      "y": 6.211714285714282
    },
    {
      "x": 1342310400,
      "y": 6.436239999999997
    },
    {
      "x": 1342483200,
      "y": 6.905368571428569
    },
    {
      "x": 1342656000,
      "y": 7.398782857142855
    },
    {
      "x": 1342828800,
      "y": 7.9124785714285695
    },
    {
      "x": 1343001600,
      "y": 7.972492857142856
    },
    {
      "x": 1343174400,
      "y": 7.837647142857142
    },
    {
      "x": 1343347200,
      "y": 7.682854285714285
    },
    {
      "x": 1343520000,
      "y": 7.628425714285712
    },
    {
      "x": 1343692800,
      "y": 7.751285714285713
    },
    {
      "x": 1343865600,
      "y": 7.964142857142855
    },
    {
      "x": 1344038400,
      "y": 8.621257142857141
    },
    {
      "x": 1344211200,
      "y": 9.176688571428569
    },
    {
      "x": 1344384000,
      "y": 9.583829999999997
    },
    {
      "x": 1344556800,
      "y": 9.752572857142853
    },
    {
      "x": 1344729600,
      "y": 9.878981428571427
    },
    {
      "x": 1344902400,
      "y": 10.144534285714283
    },
    {
      "x": 1345075200,
      "y": 10.56041857142857
    },
    {
      "x": 1345248000,
      "y": 11.602884285714284
    },
    {
      "x": 1345420800,
      "y": 11.38161857142857
    },
    {
      "x": 1345593600,
      "y": 10.531447142857141
    },
    {
      "x": 1345766400,
      "y": 9.079998571428568
    },
    {
      "x": 1345939200,
      "y": 8.84701714285714
    },
    {
      "x": 1346112000,
      "y": 9.271402857142855
    },
    {
      "x": 1346284800,
      "y": 9.50668714285714
    },
    {
      "x": 1346457600,
      "y": 9.561939999999998
    },
    {
      "x": 1346630400,
      "y": 9.15612571428571
    },
    {
      "x": 1346803200,
      "y": 9.016881428571427
    },
    {
      "x": 1346976000,
      "y": 9.188895714285712
    },
    {
      "x": 1347148800,
      "y": 9.426451428571427
    },
    {
      "x": 1347321600,
      "y": 9.590555714285712
    },
    {
      "x": 1347494400,
      "y": 9.635969999999999
    },
    {
      "x": 1347667200,
      "y": 9.806844285714284
    },
    {
      "x": 1347840000,
      "y": 10.039914285714286
    },
    {
      "x": 1348012800,
      "y": 10.314499999999999
    },
    {
      "x": 1348185600,
      "y": 10.558452857142855
    },
    {
      "x": 1348358400,
      "y": 10.66783857142857
    },
    {
      "x": 1348531200,
      "y": 10.643262857142856
    },
    {
      "x": 1348704000,
      "y": 10.569452857142856
    },
    {
      "x": 1348876800,
      "y": 10.600281428571426
    },
    {
      "x": 1349049600,
      "y": 10.66142714285714
    },
    {
      "x": 1349222400,
      "y": 10.809984285714282
    },
    {
      "x": 1349395200,
      "y": 10.973684285714283
    },
    {
      "x": 1349568000,
      "y": 11.070955714285713
    },
    {
      "x": 1349740800,
      "y": 10.878112857142856
    },
    {
      "x": 1349913600,
      "y": 10.629555714285713
    },
    {
      "x": 1350086400,
      "y": 10.436714285714285
    },
    {
      "x": 1350259200,
      "y": 10.379571428571426
    },
    {
      "x": 1350432000,
      "y": 10.328142857142854
    },
    {
      "x": 1350604800,
      "y": 10.276711428571426
    },
    {
      "x": 1350777600,
      "y": 10.221925714285714
    },
    {
      "x": 1350950400,
      "y": 10.19764
    },
    {
      "x": 1351123200,
      "y": 10.14092857142857
    },
    {
      "x": 1351296000,
      "y": 9.89695857142857
    },
    {
      "x": 1351468800,
      "y": 9.575529999999999
    },
    {
      "x": 1351641600,
      "y": 9.355529999999998
    },
    {
      "x": 1351814400,
      "y": 9.434141428571426
    },
    {
      "x": 1351987200,
      "y": 9.394279999999997
    },
    {
      "x": 1352160000,
      "y": 9.365704285714282
    },
    {
      "x": 1352332800,
      "y": 9.340695714285712
    },
    {
      "x": 1352505600,
      "y": 9.447555714285711
    },
    {
      "x": 1352678400,
      "y": 9.494559999999998
    },
    {
      "x": 1352851200,
      "y": 9.475284285714284
    },
    {
      "x": 1353024000,
      "y": 9.601714285714285
    },
    {
      "x": 1353196800,
      "y": 9.817857142857141
    },
    {
      "x": 1353369600,
      "y": 10.02656857142857
    },
    {
      "x": 1353542400,
      "y": 10.190854285714284
    },
    {
      "x": 1353715200,
      "y": 10.363539999999999
    },
    {
      "x": 1353888000,
      "y": 10.593757142857141
    },
    {
      "x": 1354060800,
      "y": 10.71848714285714
    },
    {
      "x": 1354233600,
      "y": 10.776801428571426
    },
    {
      "x": 1354406400,
      "y": 10.793412857142854
    },
    {
      "x": 1354579200,
      "y": 10.894648571428569
    },
    {
      "x": 1354752000,
      "y": 11.171762857142856
    },
    {
      "x": 1354924800,
      "y": 11.437794285714283
    },
    {
      "x": 1355097600,
      "y": 11.642685714285712
    },
    {
      "x": 1355270400,
      "y": 11.655711428571426
    },
    {
      "x": 1355443200,
      "y": 11.72300857142857
    },
    {
      "x": 1355616000,
      "y": 11.774105714285714
    },
    {
      "x": 1355788800,
      "y": 11.719394285714284
    },
    {
      "x": 1355961600,
      "y": 11.636239999999997
    },
    {
      "x": 1356134400,
      "y": 11.607639999999996
    },
    {
      "x": 1356307200,
      "y": 11.613135714285711
    },
    {
      "x": 1356480000,
      "y": 11.574549999999997
    },
    {
      "x": 1356652800,
      "y": 11.557752857142855
    },
    {
      "x": 1356825600,
      "y": 11.601254285714285
    },
    {
      "x": 1356998400,
      "y": 11.644411428571429
    },
    {
      "x": 1357171200,
      "y": 11.607854285714286
    },
    {
      "x": 1357344000,
      "y": 11.57898
    },
    {
      "x": 1357516800,
      "y": 11.566692857142856
    },
    {
      "x": 1357689600,
      "y": 11.687547142857142
    },
    {
      "x": 1357862400,
      "y": 11.913565714285713
    },
    {
      "x": 1358035200,
      "y": 12.14210857142857
    },
    {
      "x": 1358208000,
      "y": 12.294824285714284
    },
    {
      "x": 1358380800,
      "y": 12.503254285714283
    },
    {
      "x": 1358553600,
      "y": 12.95514714285714
    },
    {
      "x": 1358726400,
      "y": 13.539577142857139
    },
    {
      "x": 1358899200,
      "y": 14.26813428571428
    },
    {
      "x": 1359072000,
      "y": 15.153384285714282
    },
    {
      "x": 1359244800,
      "y": 15.546134285714281
    },
    {
      "x": 1359417600,
      "y": 15.984862857142854
    },
    {
      "x": 1359590400,
      "y": 16.42846428571428
    },
    {
      "x": 1359763200,
      "y": 17.397142857142857
    },
    {
      "x": 1359936000,
      "y": 17.89428571428571
    },
    {
      "x": 1360108800,
      "y": 18.036271428571425
    },
    {
      "x": 1360281600,
      "y": 18.307699999999993
    },
    {
      "x": 1360454400,
      "y": 19.105492857142853
    },
    {
      "x": 1360627200,
      "y": 20.22571714285714
    },
    {
      "x": 1360800000,
      "y": 21.41584714285714
    },
    {
      "x": 1360972800,
      "y": 22.380778571428568
    },
    {
      "x": 1361145600,
      "y": 22.73199
    },
    {
      "x": 1361318400,
      "y": 23.585045714285712
    },
    {
      "x": 1361491200,
      "y": 24.532481428571423
    },
    {
      "x": 1361664000,
      "y": 25.55445285714285
    },
    {
      "x": 1361836800,
      "y": 25.95826857142856
    },
    {
      "x": 1362009600,
      "y": 26.558368571428566
    },
    {
      "x": 1362182400,
      "y": 27.91280285714285
    },
    {
      "x": 1362355200,
      "y": 29.201525714285708
    },
    {
      "x": 1362528000,
      "y": 32.43555142857142
    },
    {
      "x": 1362700800,
      "y": 34.78039714285713
    },
    {
      "x": 1362873600,
      "y": 37.931975714285706
    },
    {
      "x": 1363046400,
      "y": 38.677319999999995
    },
    {
      "x": 1363219200,
      "y": 39.90634428571428
    },
    {
      "x": 1363392000,
      "y": 40.17047714285714
    },
    {
      "x": 1363564800,
      "y": 40.50397571428571
    },
    {
      "x": 1363737600,
      "y": 44.37451714285713
    },
    {
      "x": 1363910400,
      "y": 51.65165285714285
    },
    {
      "x": 1364083200,
      "y": 57.08138142857142
    },
    {
      "x": 1364256000,
      "y": 61.46971142857143
    },
    {
      "x": 1364428800,
      "y": 66.7792842857143
    },
    {
      "x": 1364601600,
      "y": 73.48642571428573
    },
    {
      "x": 1364774400,
      "y": 79.64671714285716
    },
    {
      "x": 1364947200,
      "y": 88.94000142857143
    },
    {
      "x": 1365120000,
      "y": 102.61842999999999
    },
    {
      "x": 1365292800,
      "y": 117.98804857142858
    },
    {
      "x": 1365465600,
      "y": 142.91233428571428
    },
    {
      "x": 1365638400,
      "y": 149.42690428571427
    },
    {
      "x": 1365811200,
      "y": 132.76842428571425
    },
    {
      "x": 1365984000,
      "y": 98.48413857142853
    },
    {
      "x": 1366156800,
      "y": 77.79828285714282
    },
    {
      "x": 1366329600,
      "y": 82.10285571428568
    },
    {
      "x": 1366502400,
      "y": 91.65428428571425
    },
    {
      "x": 1366675200,
      "y": 103.51085571428568
    },
    {
      "x": 1366848000,
      "y": 116.11088428571425
    },
    {
      "x": 1367020800,
      "y": 118.2167428571428
    },
    {
      "x": 1367193600,
      "y": 120.77303142857139
    },
    {
      "x": 1367366400,
      "y": 114.92854571428569
    },
    {
      "x": 1367539200,
      "y": 105.5784057142857
    },
    {
      "x": 1367712000,
      "y": 98.77694714285713
    },
    {
      "x": 1367884800,
      "y": 93.68425999999997
    },
    {
      "x": 1368057600,
      "y": 97.30733428571425
    },
    {
      "x": 1368230400,
      "y": 97.76450571428569
    },
    {
      "x": 1368403200,
      "y": 98.34493285714284
    },
    {
      "x": 1368576000,
      "y": 99.84113857142854
    },
    {
      "x": 1368748800,
      "y": 100.76974428571424
    },
    {
      "x": 1368921600,
      "y": 102.62449428571423
    },
    {
      "x": 1369094400,
      "y": 104.21949714285708
    },
    {
      "x": 1369267200,
      "y": 105.46660571428565
    },
    {
      "x": 1369440000,
      "y": 108.23571571428566
    },
    {
      "x": 1369612800,
      "y": 111.30813999999995
    },
    {
      "x": 1369785600,
      "y": 112.7354171428571
    },
    {
      "x": 1369958400,
      "y": 111.89921857142855
    },
    {
      "x": 1370131200,
      "y": 109.49141857142857
    },
    {
      "x": 1370304000,
      "y": 106.95794857142857
    },
    {
      "x": 1370476800,
      "y": 104.78058714285714
    },
    {
      "x": 1370649600,
      "y": 100.25096285714285
    },
    {
      "x": 1370822400,
      "y": 94.94700714285713
    },
    {
      "x": 1370995200,
      "y": 91.0994257142857
    },
    {
      "x": 1371168000,
      "y": 89.80013857142856
    },
    {
      "x": 1371340800,
      "y": 89.59028428571428
    },
    {
      "x": 1371513600,
      "y": 88.41216857142857
    },
    {
      "x": 1371686400,
      "y": 89.95573999999999
    },
    {
      "x": 1371859200,
      "y": 92.54431428571428
    },
    {
      "x": 1372032000,
      "y": 92.79260714285714
    },
    {
      "x": 1372204800,
      "y": 91.14507857142856
    },
    {
      "x": 1372377600,
      "y": 88.19293428571427
    },
    {
      "x": 1372550400,
      "y": 85.72147142857142
    },
    {
      "x": 1372723200,
      "y": 81.76085714285715
    },
    {
      "x": 1372896000,
      "y": 76.50014428571428
    },
    {
      "x": 1373068800,
      "y": 68.62177999999999
    },
    {
      "x": 1373241600,
      "y": 64.05520857142855
    },
    {
      "x": 1373414400,
      "y": 62.957622857142844
    },
    {
      "x": 1373587200,
      "y": 69.77841428571428
    },
    {
      "x": 1373760000,
      "y": 75.8017
    },
    {
      "x": 1373932800,
      "y": 81.58287999999999
    },
    {
      "x": 1374105600,
      "y": 82.07145285714284
    },
    {
      "x": 1374278400,
      "y": 81.29192714285712
    },
    {
      "x": 1374451200,
      "y": 79.1980457142857
    },
    {
      "x": 1374624000,
      "y": 79.29055857142855
    },
    {
      "x": 1374796800,
      "y": 80.33433428571428
    },
    {
      "x": 1374969600,
      "y": 82.25956714285714
    },
    {
      "x": 1375142400,
      "y": 84.24876714285715
    },
    {
      "x": 1375315200,
      "y": 86.61316714285714
    },
    {
      "x": 1375488000,
      "y": 88.76965142857142
    },
    {
      "x": 1375660800,
      "y": 89.93144999999998
    },
    {
      "x": 1375833600,
      "y": 90.40834
    },
    {
      "x": 1376006400,
      "y": 89.67976714285714
    },
    {
      "x": 1376179200,
      "y": 89.02168714285715
    },
    {
      "x": 1376352000,
      "y": 88.99454999999999
    },
    {
      "x": 1376524800,
      "y": 88.15312142857142
    },
    {
      "x": 1376697600,
      "y": 86.78626
    },
    {
      "x": 1376870400,
      "y": 85.1857142857143
    },
    {
      "x": 1377043200,
      "y": 87.47571428571429
    },
    {
      "x": 1377216000,
      "y": 90.55999999999999
    },
    {
      "x": 1377388800,
      "y": 93.50285714285712
    },
    {
      "x": 1377561600,
      "y": 95.64285714285712
    },
    {
      "x": 1377734400,
      "y": 98.53428571428572
    },
    {
      "x": 1377907200,
      "y": 103.65571428571428
    },
    {
      "x": 1378080000,
      "y": 108.30285714285714
    },
    {
      "x": 1378252800,
      "y": 110.94
    },
    {
      "x": 1378425600,
      "y": 109.42714285714285
    },
    {
      "x": 1378598400,
      "y": 106.1142857142857
    },
    {
      "x": 1378771200,
      "y": 104.37999999999998
    },
    {
      "x": 1378944000,
      "y": 105.17999999999998
    },
    {
      "x": 1379116800,
      "y": 107.17285714285711
    },
    {
      "x": 1379289600,
      "y": 108.09142857142854
    },
    {
      "x": 1379462400,
      "y": 108.41142857142856
    },
    {
      "x": 1379635200,
      "y": 107.7642857142857
    },
    {
      "x": 1379808000,
      "y": 107.02142857142856
    },
    {
      "x": 1379980800,
      "y": 105.70999999999998
    },
    {
      "x": 1380153600,
      "y": 105.70285714285714
    },
    {
      "x": 1380326400,
      "y": 106.53428571428572
    },
    {
      "x": 1380499200,
      "y": 107.71857142857142
    },
    {
      "x": 1380672000,
      "y": 105.36857142857141
    },
    {
      "x": 1380844800,
      "y": 103.48999999999998
    },
    {
      "x": 1381017600,
      "y": 101.9485714285714
    },
    {
      "x": 1381190400,
      "y": 104.2142857142857
    },
    {
      "x": 1381363200,
      "y": 106.15142857142855
    },
    {
      "x": 1381536000,
      "y": 107.75999999999999
    },
    {
      "x": 1381708800,
      "y": 110.33
    },
    {
      "x": 1381881600,
      "y": 114.41
    },
    {
      "x": 1382054400,
      "y": 120.05999999999997
    },
    {
      "x": 1382227200,
      "y": 129.3928571428571
    },
    {
      "x": 1382400000,
      "y": 141.9328571428571
    },
    {
      "x": 1382572800,
      "y": 156.47714285714284
    },
    {
      "x": 1382745600,
      "y": 159.58571428571426
    },
    {
      "x": 1382918400,
      "y": 161.93714285714282
    },
    {
      "x": 1383091200,
      "y": 163.32999999999996
    },
    {
      "x": 1383264000,
      "y": 170.80571428571426
    },
    {
      "x": 1383436800,
      "y": 174.47571428571428
    },
    {
      "x": 1383609600,
      "y": 183.93999999999997
    },
    {
      "x": 1383782400,
      "y": 204.7542857142857
    },
    {
      "x": 1383955200,
      "y": 243.94285714285712
    },
    {
      "x": 1384128000,
      "y": 267.45142857142855
    },
    {
      "x": 1384300800,
      "y": 295.3142857142857
    },
    {
      "x": 1384473600,
      "y": 318.0885714285714
    },
    {
      "x": 1384646400,
      "y": 355.26571428571424
    },
    {
      "x": 1384819200,
      "y": 412.06
    },
    {
      "x": 1384992000,
      "y": 475.66142857142853
    },
    {
      "x": 1385164800,
      "y": 576.0128571428571
    },
    {
      "x": 1385337600,
      "y": 648.0142857142857
    },
    {
      "x": 1385510400,
      "y": 721.7214285714285
    },
    {
      "x": 1385683200,
      "y": 792.28
    },
    {
      "x": 1385856000,
      "y": 855.5371428571428
    },
    {
      "x": 1386028800,
      "y": 890.732857142857
    },
    {
      "x": 1386201600,
      "y": 903.0814285714284
    },
    {
      "x": 1386374400,
      "y": 836.1285714285714
    },
    {
      "x": 1386547200,
      "y": 770.66
    },
    {
      "x": 1386720000,
      "y": 719.78
    },
    {
      "x": 1386892800,
      "y": 733.8457142857143
    },
    {
      "x": 1387065600,
      "y": 750.8285714285714
    },
    {
      "x": 1387238400,
      "y": 691.952857142857
    },
    {
      "x": 1387411200,
      "y": 621.8685714285714
    },
    {
      "x": 1387584000,
      "y": 558.9585714285714
    },
    {
      "x": 1387756800,
      "y": 539.7942857142857
    },
    {
      "x": 1387929600,
      "y": 550.6771428571428
    },
    {
      "x": 1388102400,
      "y": 576.0242857142856
    },
    {
      "x": 1388275200,
      "y": 595.952857142857
    },
    {
      "x": 1388448000,
      "y": 619.4899999999999
    },
    {
      "x": 1388620800,
      "y": 627.3442857142857
    },
    {
      "x": 1388793600,
      "y": 657.6571428571428
    },
    {
      "x": 1388966400,
      "y": 709.1014285714285
    },
    {
      "x": 1389139200,
      "y": 735.9242857142857
    },
    {
      "x": 1389312000,
      "y": 737.0728571428571
    },
    {
      "x": 1389484800,
      "y": 724.592857142857
    },
    {
      "x": 1389657600,
      "y": 715.4371428571427
    },
    {
      "x": 1389830400,
      "y": 721.4328571428571
    },
    {
      "x": 1390003200,
      "y": 700.2442857142858
    },
    {
      "x": 1390176000,
      "y": 705.4071428571428
    },
    {
      "x": 1390348800,
      "y": 699.2657142857141
    },
    {
      "x": 1390521600,
      "y": 700.3499999999997
    },
    {
      "x": 1390694400,
      "y": 695.785714285714
    },
    {
      "x": 1390867200,
      "y": 687.4414285714283
    },
    {
      "x": 1391040000,
      "y": 687.562857142857
    },
    {
      "x": 1391212800,
      "y": 685.522857142857
    },
    {
      "x": 1391385600,
      "y": 693.5471428571427
    },
    {
      "x": 1391558400,
      "y": 694.4157142857142
    },
    {
      "x": 1391731200,
      "y": 680.4571428571427
    },
    {
      "x": 1391904000,
      "y": 649.5471428571427
    },
    {
      "x": 1392076800,
      "y": 610.3971428571426
    },
    {
      "x": 1392249600,
      "y": 578.9999999999999
    },
    {
      "x": 1392422400,
      "y": 565.6457142857141
    },
    {
      "x": 1392595200,
      "y": 555.7171428571427
    },
    {
      "x": 1392768000,
      "y": 548.5314285714284
    },
    {
      "x": 1392940800,
      "y": 523.5799999999998
    },
    {
      "x": 1393113600,
      "y": 518.6157142857141
    },
    {
      "x": 1393286400,
      "y": 493.2299999999999
    },
    {
      "x": 1393459200,
      "y": 496.3285714285713
    },
    {
      "x": 1393632000,
      "y": 484.7171428571427
    },
    {
      "x": 1393804800,
      "y": 506.62857142857115
    },
    {
      "x": 1393977600,
      "y": 531.1871428571426
    },
    {
      "x": 1394150400,
      "y": 549.5942857142855
    },
    {
      "x": 1394323200,
      "y": 552.5385714285713
    },
    {
      "x": 1394496000,
      "y": 538.5999999999999
    },
    {
      "x": 1394668800,
      "y": 539.512857142857
    },
    {
      "x": 1394841600,
      "y": 543.1942857142856
    },
    {
      "x": 1395014400,
      "y": 545.3014285714285
    },
    {
      "x": 1395187200,
      "y": 538.2585714285714
    },
    {
      "x": 1395360000,
      "y": 523.5771428571428
    },
    {
      "x": 1395532800,
      "y": 504.2185714285714
    },
    {
      "x": 1395705600,
      "y": 492.30571428571426
    },
    {
      "x": 1395878400,
      "y": 483.15
    },
    {
      "x": 1396051200,
      "y": 465.83714285714285
    },
    {
      "x": 1396224000,
      "y": 430.6942857142857
    },
    {
      "x": 1396396800,
      "y": 404.7814285714285
    },
    {
      "x": 1396569600,
      "y": 388.97857142857134
    },
    {
      "x": 1396742400,
      "y": 389.76285714285706
    },
    {
      "x": 1396915200,
      "y": 386.52
    },
    {
      "x": 1397088000,
      "y": 379.63142857142856
    },
    {
      "x": 1397260800,
      "y": 371.26857142857136
    },
    {
      "x": 1397433600,
      "y": 365.02999999999986
    },
    {
      "x": 1397606400,
      "y": 387.502857142857
    },
    {
      "x": 1397779200,
      "y": 404.932857142857
    },
    {
      "x": 1397952000,
      "y": 425.2114285714285
    },
    {
      "x": 1398124800,
      "y": 423.5571428571428
    },
    {
      "x": 1398297600,
      "y": 424.11714285714277
    },
    {
      "x": 1398470400,
      "y": 413.10857142857134
    },
    {
      "x": 1398643200,
      "y": 398.432857142857
    },
    {
      "x": 1398816000,
      "y": 386.68999999999994
    },
    {
      "x": 1398988800,
      "y": 384.47428571428566
    },
    {
      "x": 1399161600,
      "y": 382.1328571428571
    },
    {
      "x": 1399334400,
      "y": 376.62714285714287
    },
    {
      "x": 1399507200,
      "y": 373.86
    },
    {
      "x": 1399680000,
      "y": 378.6785714285714
    },
    {
      "x": 1399852800,
      "y": 381.2985714285714
    },
    {
      "x": 1400025600,
      "y": 381.0542857142857
    },
    {
      "x": 1400198400,
      "y": 380.20571428571435
    },
    {
      "x": 1400371200,
      "y": 383.0228571428572
    },
    {
      "x": 1400544000,
      "y": 389.45000000000005
    },
    {
      "x": 1400716800,
      "y": 406.6228571428572
    },
    {
      "x": 1400889600,
      "y": 428.44714285714286
    },
    {
      "x": 1401062400,
      "y": 460.9571428571429
    },
    {
      "x": 1401235200,
      "y": 480.59857142857146
    },
    {
      "x": 1401408000,
      "y": 498.8900000000001
    },
    {
      "x": 1401580800,
      "y": 518.3800000000001
    },
    {
      "x": 1401753600,
      "y": 539.6928571428573
    },
    {
      "x": 1401926400,
      "y": 557.7428571428572
    },
    {
      "x": 1402099200,
      "y": 559.8314285714287
    },
    {
      "x": 1402272000,
      "y": 559.48
    },
    {
      "x": 1402444800,
      "y": 557.5514285714286
    },
    {
      "x": 1402617600,
      "y": 541.6871428571428
    },
    {
      "x": 1402790400,
      "y": 515.3271428571429
    },
    {
      "x": 1402963200,
      "y": 501.43714285714293
    },
    {
      "x": 1403136000,
      "y": 502.8542857142859
    },
    {
      "x": 1403308800,
      "y": 512.2700000000001
    },
    {
      "x": 1403481600,
      "y": 511.5457142857144
    },
    {
      "x": 1403654400,
      "y": 503.4914285714286
    },
    {
      "x": 1403827200,
      "y": 499.727142857143
    },
    {
      "x": 1404000000,
      "y": 500.51285714285723
    },
    {
      "x": 1404172800,
      "y": 517.9285714285716
    },
    {
      "x": 1404345600,
      "y": 537.9385714285714
    },
    {
      "x": 1404518400,
      "y": 548.6800000000001
    },
    {
      "x": 1404691200,
      "y": 546.1114285714287
    },
    {
      "x": 1404864000,
      "y": 539.0400000000002
    },
    {
      "x": 1405036800,
      "y": 536.4428571428573
    },
    {
      "x": 1405209600,
      "y": 537.3585714285714
    },
    {
      "x": 1405382400,
      "y": 536.9914285714285
    },
    {
      "x": 1405555200,
      "y": 536.3328571428572
    },
    {
      "x": 1405728000,
      "y": 536.0328571428573
    },
    {
      "x": 1405900800,
      "y": 535.5957142857145
    },
    {
      "x": 1406073600,
      "y": 535.247142857143
    },
    {
      "x": 1406246400,
      "y": 527.1028571428571
    },
    {
      "x": 1406419200,
      "y": 519.3142857142857
    },
    {
      "x": 1406592000,
      "y": 508.65999999999997
    },
    {
      "x": 1406764800,
      "y": 502.3328571428571
    },
    {
      "x": 1406937600,
      "y": 503.0671428571428
    },
    {
      "x": 1407110400,
      "y": 505.2485714285714
    },
    {
      "x": 1407283200,
      "y": 505.5814285714285
    },
    {
      "x": 1407456000,
      "y": 503.1542857142856
    },
    {
      "x": 1407628800,
      "y": 502.27857142857147
    },
    {
      "x": 1407801600,
      "y": 500.3785714285715
    },
    {
      "x": 1407974400,
      "y": 485.4157142857142
    },
    {
      "x": 1408147200,
      "y": 461.0671428571428
    },
    {
      "x": 1408320000,
      "y": 434.14714285714285
    },
    {
      "x": 1408492800,
      "y": 423.14714285714285
    },
    {
      "x": 1408665600,
      "y": 428.4142857142857
    },
    {
      "x": 1408838400,
      "y": 436.2085714285714
    },
    {
      "x": 1409011200,
      "y": 439.32
    },
    {
      "x": 1409184000,
      "y": 436.4914285714285
    },
    {
      "x": 1409356800,
      "y": 436.6685714285714
    },
    {
      "x": 1409529600,
      "y": 428.66714285714284
    },
    {
      "x": 1409702400,
      "y": 418.9785714285714
    },
    {
      "x": 1409875200,
      "y": 412.69857142857137
    },
    {
      "x": 1410048000,
      "y": 412.8614285714285
    },
    {
      "x": 1410220800,
      "y": 410.95857142857136
    },
    {
      "x": 1410393600,
      "y": 408.40428571428566
    },
    {
      "x": 1410566400,
      "y": 406.7728571428571
    },
    {
      "x": 1410739200,
      "y": 407.87285714285713
    },
    {
      "x": 1410912000,
      "y": 402.44000000000005
    },
    {
      "x": 1411084800,
      "y": 384.83857142857147
    },
    {
      "x": 1411257600,
      "y": 366.41999999999996
    },
    {
      "x": 1411430400,
      "y": 353.2742857142857
    },
    {
      "x": 1411603200,
      "y": 355.1185714285714
    },
    {
      "x": 1411776000,
      "y": 352.8357142857143
    },
    {
      "x": 1411948800,
      "y": 343.9728571428571
    },
    {
      "x": 1412121600,
      "y": 333.67999999999995
    },
    {
      "x": 1412294400,
      "y": 324.2114285714285
    },
    {
      "x": 1412467200,
      "y": 305.31571428571425
    },
    {
      "x": 1412640000,
      "y": 290.16714285714284
    },
    {
      "x": 1412812800,
      "y": 288.11
    },
    {
      "x": 1412985600,
      "y": 300.8657142857143
    },
    {
      "x": 1413158400,
      "y": 312.92142857142863
    },
    {
      "x": 1413331200,
      "y": 324.4485714285715
    },
    {
      "x": 1413504000,
      "y": 330.43285714285713
    },
    {
      "x": 1413676800,
      "y": 335.05857142857144
    },
    {
      "x": 1413849600,
      "y": 330.21
    },
    {
      "x": 1414022400,
      "y": 328.53000000000003
    },
    {
      "x": 1414195200,
      "y": 318.3414285714286
    },
    {
      "x": 1414368000,
      "y": 309.7671428571429
    },
    {
      "x": 1414540800,
      "y": 302.53571428571433
    },
    {
      "x": 1414713600,
      "y": 298.33571428571435
    },
    {
      "x": 1414886400,
      "y": 290.0314285714286
    },
    {
      "x": 1415059200,
      "y": 283.7542857142857
    },
    {
      "x": 1415232000,
      "y": 285.46857142857135
    },
    {
      "x": 1415404800,
      "y": 290.3685714285714
    },
    {
      "x": 1415577600,
      "y": 301.4657142857143
    },
    {
      "x": 1415750400,
      "y": 316.48857142857145
    },
    {
      "x": 1415923200,
      "y": 332.92
    },
    {
      "x": 1416096000,
      "y": 336.43142857142857
    },
    {
      "x": 1416268800,
      "y": 331.1857142857143
    },
    {
      "x": 1416441600,
      "y": 321.6642857142857
    },
    {
      "x": 1416614400,
      "y": 315.9371428571428
    },
    {
      "x": 1416787200,
      "y": 314.3085714285713
    },
    {
      "x": 1416960000,
      "y": 316.5942857142856
    },
    {
      "x": 1417132800,
      "y": 321.1714285714285
    },
    {
      "x": 1417305600,
      "y": 322.05571428571426
    },
    {
      "x": 1417478400,
      "y": 323.65285714285716
    },
    {
      "x": 1417651200,
      "y": 323.82142857142856
    },
    {
      "x": 1417824000,
      "y": 323.0857142857143
    },
    {
      "x": 1417996800,
      "y": 320.0985714285714
    },
    {
      "x": 1418169600,
      "y": 313.14714285714285
    },
    {
      "x": 1418342400,
      "y": 307.8828571428571
    },
    {
      "x": 1418515200,
      "y": 302.28999999999996
    },
    {
      "x": 1418688000,
      "y": 300.52142857142854
    },
    {
      "x": 1418860800,
      "y": 289.76714285714286
    },
    {
      "x": 1419033600,
      "y": 281.15857142857146
    },
    {
      "x": 1419206400,
      "y": 276.9557142857143
    },
    {
      "x": 1419379200,
      "y": 281.04857142857145
    },
    {
      "x": 1419552000,
      "y": 281.63
    },
    {
      "x": 1419724800,
      "y": 277.7
    },
    {
      "x": 1419897600,
      "y": 272.4185714285714
    },
    {
      "x": 1420070400,
      "y": 270.3757142857143
    },
    {
      "x": 1420243200,
      "y": 268.4514285714286
    },
    {
      "x": 1420416000,
      "y": 257.04428571428576
    },
    {
      "x": 1420588800,
      "y": 245.6871428571429
    },
    {
      "x": 1420761600,
      "y": 236.41857142857145
    },
    {
      "x": 1420934400,
      "y": 236.77857142857147
    },
    {
      "x": 1421107200,
      "y": 229.24857142857144
    },
    {
      "x": 1421280000,
      "y": 206.5357142857143
    },
    {
      "x": 1421452800,
      "y": 185.42428571428573
    },
    {
      "x": 1421625600,
      "y": 174.37857142857146
    },
    {
      "x": 1421798400,
      "y": 179.1757142857143
    },
    {
      "x": 1421971200,
      "y": 188.3842857142857
    },
    {
      "x": 1422144000,
      "y": 198.12428571428572
    },
    {
      "x": 1422316800,
      "y": 213.74
    },
    {
      "x": 1422489600,
      "y": 215.95571428571432
    },
    {
      "x": 1422662400,
      "y": 211.3928571428572
    },
    {
      "x": 1422835200,
      "y": 197.9957142857143
    },
    {
      "x": 1423008000,
      "y": 194.65714285714284
    },
    {
      "x": 1423180800,
      "y": 191.51857142857142
    },
    {
      "x": 1423353600,
      "y": 192.22428571428568
    },
    {
      "x": 1423526400,
      "y": 189.5785714285714
    },
    {
      "x": 1423699200,
      "y": 190.4328571428571
    },
    {
      "x": 1423872000,
      "y": 195.65999999999994
    },
    {
      "x": 1424044800,
      "y": 201.27428571428567
    },
    {
      "x": 1424217600,
      "y": 206.28142857142853
    },
    {
      "x": 1424390400,
      "y": 206.26714285714283
    },
    {
      "x": 1424563200,
      "y": 206.52571428571426
    },
    {
      "x": 1424736000,
      "y": 206.28571428571428
    },
    {
      "x": 1424908800,
      "y": 204.99142857142857
    },
    {
      "x": 1425081600,
      "y": 208.6085714285714
    },
    {
      "x": 1425254400,
      "y": 213.49142857142851
    },
    {
      "x": 1425427200,
      "y": 225.11428571428564
    },
    {
      "x": 1425600000,
      "y": 229.50999999999993
    },
    {
      "x": 1425772800,
      "y": 234.9857142857142
    },
    {
      "x": 1425945600,
      "y": 238.42714285714283
    },
    {
      "x": 1426118400,
      "y": 245.98857142857136
    },
    {
      "x": 1426291200,
      "y": 249.41999999999993
    },
    {
      "x": 1426464000,
      "y": 248.4071428571428
    },
    {
      "x": 1426636800,
      "y": 243.00571428571425
    },
    {
      "x": 1426809600,
      "y": 235.39142857142855
    },
    {
      "x": 1426982400,
      "y": 227.37428571428575
    },
    {
      "x": 1427155200,
      "y": 221.8071428571429
    },
    {
      "x": 1427328000,
      "y": 218.55571428571432
    },
    {
      "x": 1427500800,
      "y": 215.95857142857145
    },
    {
      "x": 1427673600,
      "y": 212.43428571428575
    },
    {
      "x": 1427846400,
      "y": 210.71428571428575
    },
    {
      "x": 1428019200,
      "y": 211.66857142857148
    },
    {
      "x": 1428192000,
      "y": 214.75000000000006
    },
    {
      "x": 1428364800,
      "y": 218.25857142857149
    },
    {
      "x": 1428537600,
      "y": 215.9785714285715
    },
    {
      "x": 1428710400,
      "y": 210.4942857142858
    },
    {
      "x": 1428883200,
      "y": 203.71857142857155
    },
    {
      "x": 1429056000,
      "y": 195.7314285714287
    },
    {
      "x": 1429228800,
      "y": 192.85714285714297
    },
    {
      "x": 1429401600,
      "y": 190.7557142857144
    },
    {
      "x": 1429574400,
      "y": 192.8342857142858
    },
    {
      "x": 1429747200,
      "y": 195.76714285714297
    },
    {
      "x": 1429920000,
      "y": 197.40857142857155
    },
    {
      "x": 1430092800,
      "y": 196.19428571428583
    },
    {
      "x": 1430265600,
      "y": 192.69857142857154
    },
    {
      "x": 1430438400,
      "y": 193.98857142857156
    },
    {
      "x": 1430611200,
      "y": 198.7928571428573
    },
    {
      "x": 1430784000,
      "y": 202.00428571428583
    },
    {
      "x": 1430956800,
      "y": 202.17857142857156
    },
    {
      "x": 1431129600,
      "y": 203.77285714285728
    },
    {
      "x": 1431302400,
      "y": 205.58857142857158
    },
    {
      "x": 1431475200,
      "y": 207.6528571428573
    },
    {
      "x": 1431648000,
      "y": 206.24142857142874
    },
    {
      "x": 1431820800,
      "y": 204.65142857142874
    },
    {
      "x": 1431993600,
      "y": 202.40285714285733
    },
    {
      "x": 1432166400,
      "y": 201.6428571428573
    },
    {
      "x": 1432339200,
      "y": 202.62285714285736
    },
    {
      "x": 1432512000,
      "y": 203.71142857142883
    },
    {
      "x": 1432684800,
      "y": 203.76000000000028
    },
    {
      "x": 1432857600,
      "y": 202.77142857142883
    },
    {
      "x": 1433030400,
      "y": 200.9085714285717
    },
    {
      "x": 1433203200,
      "y": 197.52142857142883
    },
    {
      "x": 1433376000,
      "y": 194.59000000000026
    },
    {
      "x": 1433548800,
      "y": 192.5285714285717
    },
    {
      "x": 1433721600,
      "y": 193.01000000000028
    },
    {
      "x": 1433894400,
      "y": 193.90714285714313
    },
    {
      "x": 1434067200,
      "y": 195.384285714286
    },
    {
      "x": 1434240000,
      "y": 197.05142857142886
    },
    {
      "x": 1434412800,
      "y": 200.43714285714313
    },
    {
      "x": 1434585600,
      "y": 206.04142857142887
    },
    {
      "x": 1434758400,
      "y": 210.07857142857173
    },
    {
      "x": 1434931200,
      "y": 211.08000000000033
    },
    {
      "x": 1435104000,
      "y": 209.13000000000034
    },
    {
      "x": 1435276800,
      "y": 208.07000000000033
    },
    {
      "x": 1435449600,
      "y": 209.2757142857146
    },
    {
      "x": 1435622400,
      "y": 213.81428571428603
    },
    {
      "x": 1435795200,
      "y": 218.0714285714289
    },
    {
      "x": 1435968000,
      "y": 220.32285714285746
    },
    {
      "x": 1436140800,
      "y": 224.31714285714318
    },
    {
      "x": 1436313600,
      "y": 227.75000000000028
    },
    {
      "x": 1436486400,
      "y": 234.12714285714316
    },
    {
      "x": 1436659200,
      "y": 242.4857142857146
    },
    {
      "x": 1436832000,
      "y": 249.03285714285744
    },
    {
      "x": 1437004800,
      "y": 250.32571428571453
    },
    {
      "x": 1437177600,
      "y": 243.65000000000023
    },
    {
      "x": 1437350400,
      "y": 239.59000000000026
    },
    {
      "x": 1437523200,
      "y": 238.1328571428574
    },
    {
      "x": 1437696000,
      "y": 239.2571428571431
    },
    {
      "x": 1437868800,
      "y": 242.84285714285738
    },
    {
      "x": 1438041600,
      "y": 247.0600000000003
    },
    {
      "x": 1438214400,
      "y": 249.10571428571455
    },
    {
      "x": 1438387200,
      "y": 247.11285714285742
    },
    {
      "x": 1438560000,
      "y": 244.12000000000026
    },
    {
      "x": 1438732800,
      "y": 242.6100000000003
    },
    {
      "x": 1438905600,
      "y": 241.32285714285746
    },
    {
      "x": 1439078400,
      "y": 237.07000000000028
    },
    {
      "x": 1439251200,
      "y": 231.67428571428601
    },
    {
      "x": 1439424000,
      "y": 228.4414285714289
    },
    {
      "x": 1439596800,
      "y": 228.0257142857146
    },
    {
      "x": 1439769600,
      "y": 225.88285714285743
    },
    {
      "x": 1439942400,
      "y": 219.21714285714316
    },
    {
      "x": 1440115200,
      "y": 209.84857142857174
    },
    {
      "x": 1440288000,
      "y": 201.24857142857172
    },
    {
      "x": 1440460800,
      "y": 193.8285714285717
    },
    {
      "x": 1440633600,
      "y": 192.44142857142884
    },
    {
      "x": 1440806400,
      "y": 193.53714285714315
    },
    {
      "x": 1440979200,
      "y": 196.7014285714289
    },
    {
      "x": 1441152000,
      "y": 196.97142857142887
    },
    {
      "x": 1441324800,
      "y": 196.3757142857146
    },
    {
      "x": 1441497600,
      "y": 198.87000000000032
    },
    {
      "x": 1441670400,
      "y": 202.49714285714316
    },
    {
      "x": 1441843200,
      "y": 205.57428571428602
    },
    {
      "x": 1442016000,
      "y": 205.60142857142887
    },
    {
      "x": 1442188800,
      "y": 202.22285714285744
    },
    {
      "x": 1442361600,
      "y": 199.094285714286
    },
    {
      "x": 1442534400,
      "y": 197.94142857142887
    },
    {
      "x": 1442707200,
      "y": 197.96571428571463
    },
    {
      "x": 1442880000,
      "y": 197.69857142857177
    },
    {
      "x": 1443052800,
      "y": 197.25000000000034
    },
    {
      "x": 1443225600,
      "y": 198.48428571428605
    },
    {
      "x": 1443398400,
      "y": 200.74142857142888
    },
    {
      "x": 1443571200,
      "y": 202.41857142857174
    },
    {
      "x": 1443744000,
      "y": 203.4485714285717
    },
    {
      "x": 1443916800,
      "y": 204.42714285714317
    },
    {
      "x": 1444089600,
      "y": 205.8985714285717
    },
    {
      "x": 1444262400,
      "y": 207.67000000000027
    },
    {
      "x": 1444435200,
      "y": 209.37428571428597
    },
    {
      "x": 1444608000,
      "y": 210.634285714286
    },
    {
      "x": 1444780800,
      "y": 212.78000000000029
    },
    {
      "x": 1444953600,
      "y": 216.56142857142888
    },
    {
      "x": 1445126400,
      "y": 221.81857142857177
    },
    {
      "x": 1445299200,
      "y": 226.07285714285752
    },
    {
      "x": 1445472000,
      "y": 229.7885714285718
    },
    {
      "x": 1445644800,
      "y": 233.47714285714318
    },
    {
      "x": 1445817600,
      "y": 240.04857142857173
    },
    {
      "x": 1445990400,
      "y": 247.28142857142888
    },
    {
      "x": 1446163200,
      "y": 259.02857142857175
    },
    {
      "x": 1446336000,
      "y": 265.094285714286
    },
    {
      "x": 1446508800,
      "y": 287.3814285714289
    },
    {
      "x": 1446681600,
      "y": 315.5942857142861
    },
    {
      "x": 1446854400,
      "y": 337.5000000000004
    },
    {
      "x": 1447027200,
      "y": 339.0171428571432
    },
    {
      "x": 1447200000,
      "y": 314.2214285714288
    },
    {
      "x": 1447372800,
      "y": 298.2271428571431
    },
    {
      "x": 1447545600,
      "y": 283.0728571428574
    },
    {
      "x": 1447718400,
      "y": 283.3285714285717
    },
    {
      "x": 1447891200,
      "y": 283.28000000000026
    },
    {
      "x": 1448064000,
      "y": 282.1300000000003
    },
    {
      "x": 1448236800,
      "y": 279.494285714286
    },
    {
      "x": 1448409600,
      "y": 277.014285714286
    },
    {
      "x": 1448582400,
      "y": 285.7800000000003
    },
    {
      "x": 1448755200,
      "y": 295.9285714285718
    },
    {
      "x": 1448928000,
      "y": 308.17857142857173
    },
    {
      "x": 1449100800,
      "y": 310.454285714286
    },
    {
      "x": 1449273600,
      "y": 313.4171428571431
    },
    {
      "x": 1449446400,
      "y": 321.09857142857174
    },
    {
      "x": 1449619200,
      "y": 333.3171428571432
    },
    {
      "x": 1449792000,
      "y": 350.65000000000043
    },
    {
      "x": 1449964800,
      "y": 361.9685714285718
    },
    {
      "x": 1450137600,
      "y": 375.694285714286
    },
    {
      "x": 1450310400,
      "y": 382.53571428571456
    },
    {
      "x": 1450483200,
      "y": 390.4300000000003
    },
    {
      "x": 1450656000,
      "y": 385.944285714286
    },
    {
      "x": 1450828800,
      "y": 381.5957142857147
    },
    {
      "x": 1451001600,
      "y": 379.99857142857184
    },
    {
      "x": 1451174400,
      "y": 374.6800000000004
    },
    {
      "x": 1451347200,
      "y": 371.4985714285718
    },
    {
      "x": 1451520000,
      "y": 364.1285714285718
    },
    {
      "x": 1451692800,
      "y": 368.38857142857177
    },
    {
      "x": 1451865600,
      "y": 369.2485714285718
    },
    {
      "x": 1452038400,
      "y": 370.00714285714315
    },
    {
      "x": 1452211200,
      "y": 374.9328571428574
    },
    {
      "x": 1452384000,
      "y": 379.97000000000025
    },
    {
      "x": 1452556800,
      "y": 384.41571428571456
    },
    {
      "x": 1452729600,
      "y": 378.804285714286
    },
    {
      "x": 1452902400,
      "y": 359.6085714285717
    },
    {
      "x": 1453075200,
      "y": 342.0314285714288
    },
    {
      "x": 1453248000,
      "y": 331.39142857142883
    },
    {
      "x": 1453420800,
      "y": 335.9171428571431
    },
    {
      "x": 1453593600,
      "y": 339.13428571428597
    },
    {
      "x": 1453766400,
      "y": 338.30857142857167
    },
    {
      "x": 1453939200,
      "y": 335.9071428571431
    },
    {
      "x": 1454112000,
      "y": 330.514285714286
    },
    {
      "x": 1454284800,
      "y": 325.89285714285745
    },
    {
      "x": 1454457600,
      "y": 320.8885714285717
    },
    {
      "x": 1454630400,
      "y": 323.18142857142885
    },
    {
      "x": 1454803200,
      "y": 322.88428571428597
    },
    {
      "x": 1454976000,
      "y": 323.8200000000003
    },
    {
      "x": 1455148800,
      "y": 321.56000000000023
    },
    {
      "x": 1455321600,
      "y": 324.8857142857145
    },
    {
      "x": 1455494400,
      "y": 332.9728571428573
    },
    {
      "x": 1455667200,
      "y": 342.8300000000002
    },
    {
      "x": 1455840000,
      "y": 352.3914285714288
    },
    {
      "x": 1456012800,
      "y": 362.2671428571431
    },
    {
      "x": 1456185600,
      "y": 366.6628571428574
    },
    {
      "x": 1456358400,
      "y": 367.7357142857145
    },
    {
      "x": 1456531200,
      "y": 365.1914285714288
    },
    {
      "x": 1456704000,
      "y": 367.21285714285733
    },
    {
      "x": 1456876800,
      "y": 369.6928571428574
    },
    {
      "x": 1457049600,
      "y": 367.06142857142885
    },
    {
      "x": 1457222400,
      "y": 358.52000000000027
    },
    {
      "x": 1457395200,
      "y": 353.15857142857163
    },
    {
      "x": 1457568000,
      "y": 351.89857142857164
    },
    {
      "x": 1457740800,
      "y": 354.9500000000002
    },
    {
      "x": 1457913600,
      "y": 355.23571428571455
    },
    {
      "x": 1458086400,
      "y": 355.47428571428594
    },
    {
      "x": 1458259200,
      "y": 354.94428571428597
    },
    {
      "x": 1458432000,
      "y": 353.5200000000002
    },
    {
      "x": 1458604800,
      "y": 352.8157142857145
    },
    {
      "x": 1458777600,
      "y": 353.7814285714288
    },
    {
      "x": 1458950400,
      "y": 356.0371428571431
    },
    {
      "x": 1459123200,
      "y": 359.454285714286
    },
    {
      "x": 1459296000,
      "y": 358.3228571428574
    },
    {
      "x": 1459468800,
      "y": 358.4714285714288
    },
    {
      "x": 1459641600,
      "y": 356.5257142857145
    },
    {
      "x": 1459814400,
      "y": 358.5842857142859
    },
    {
      "x": 1459987200,
      "y": 359.76000000000016
    },
    {
      "x": 1460160000,
      "y": 360.3014285714287
    },
    {
      "x": 1460332800,
      "y": 360.52428571428584
    },
    {
      "x": 1460505600,
      "y": 361.8214285714287
    },
    {
      "x": 1460678400,
      "y": 363.66714285714306
    },
    {
      "x": 1460851200,
      "y": 365.49857142857167
    },
    {
      "x": 1461024000,
      "y": 367.31142857142885
    },
    {
      "x": 1461196800,
      "y": 373.09571428571456
    },
    {
      "x": 1461369600,
      "y": 379.29571428571455
    },
    {
      "x": 1461542400,
      "y": 387.8771428571431
    },
    {
      "x": 1461715200,
      "y": 391.0128571428574
    },
    {
      "x": 1461888000,
      "y": 392.10142857142876
    },
    {
      "x": 1462060800,
      "y": 388.6457142857144
    },
    {
      "x": 1462233600,
      "y": 385.72714285714295
    },
    {
      "x": 1462406400,
      "y": 384.25857142857154
    },
    {
      "x": 1462579200,
      "y": 387.24142857142874
    },
    {
      "x": 1462752000,
      "y": 390.7542857142859
    },
    {
      "x": 1462924800,
      "y": 391.7014285714288
    },
    {
      "x": 1463097600,
      "y": 390.49714285714305
    },
    {
      "x": 1463270400,
      "y": 389.537142857143
    },
    {
      "x": 1463443200,
      "y": 390.2885714285716
    },
    {
      "x": 1463616000,
      "y": 387.8957142857144
    },
    {
      "x": 1463788800,
      "y": 383.9542857142858
    },
    {
      "x": 1463961600,
      "y": 380.0114285714286
    },
    {
      "x": 1464134400,
      "y": 379.7985714285715
    },
    {
      "x": 1464307200,
      "y": 385.1757142857144
    },
    {
      "x": 1464480000,
      "y": 407.2357142857144
    },
    {
      "x": 1464652800,
      "y": 430.52428571428584
    },
    {
      "x": 1464825600,
      "y": 452.90714285714307
    },
    {
      "x": 1464998400,
      "y": 468.21428571428595
    },
    {
      "x": 1465171200,
      "y": 482.8171428571431
    },
    {
      "x": 1465344000,
      "y": 493.7828571428573
    },
    {
      "x": 1465516800,
      "y": 495.36914464285735
    },
    {
      "x": 1465689600,
      "y": 509.7643571428573
    },
    {
      "x": 1465862400,
      "y": 542.7769821428574
    },
    {
      "x": 1466035200,
      "y": 585.9020767857146
    },
    {
      "x": 1466208000,
      "y": 620.0443857142861
    },
    {
      "x": 1466380800,
      "y": 634.7159586734698
    },
    {
      "x": 1466553600,
      "y": 605.9578408163268
    },
    {
      "x": 1466726400,
      "y": 575.5098408163268
    },
    {
      "x": 1466899200,
      "y": 547.2655714285717
    },
    {
      "x": 1467072000,
      "y": 552.9325196428575
    },
    {
      "x": 1467244800,
      "y": 556.392648214286
    },
    {
      "x": 1467417600,
      "y": 568.4782125000003
    },
    {
      "x": 1467590400,
      "y": 574.4304196428574
    },
    {
      "x": 1467763200,
      "y": 578.8454000000002
    },
    {
      "x": 1467936000,
      "y": 567.2762071428574
    },
    {
      "x": 1468108800,
      "y": 562.3066178571431
    },
    {
      "x": 1468281600,
      "y": 559.5175607142861
    },
    {
      "x": 1468454400,
      "y": 562.4275607142861
    },
    {
      "x": 1468627200,
      "y": 566.2511303571431
    },
    {
      "x": 1468800000,
      "y": 570.2390839285716
    },
    {
      "x": 1468972800,
      "y": 573.410830357143
    },
    {
      "x": 1469145600,
      "y": 571.9449214285717
    },
    {
      "x": 1469318400,
      "y": 567.4585267857145
    },
    {
      "x": 1469491200,
      "y": 563.3548964285717
    },
    {
      "x": 1469664000,
      "y": 562.4758035714289
    },
    {
      "x": 1469836800,
      "y": 561.6707535714288
    },
    {
      "x": 1470009600,
      "y": 550.8960114795921
    },
    {
      "x": 1470182400,
      "y": 518.0108377551023
    },
    {
      "x": 1470355200,
      "y": 495.4751637755105
    },
    {
      "x": 1470528000,
      "y": 488.0706551020412
    },
    {
      "x": 1470700800,
      "y": 502.5505573979595
    },
    {
      "x": 1470873600,
      "y": 506.4872563775514
    },
    {
      "x": 1471046400,
      "y": 505.29925357142895
    },
    {
      "x": 1471219200,
      "y": 499.5343609693881
    },
    {
      "x": 1471392000,
      "y": 495.99219489795956
    },
    {
      "x": 1471564800,
      "y": 492.92119846938806
    },
    {
      "x": 1471737600,
      "y": 496.4798982142861
    },
    {
      "x": 1471910400,
      "y": 499.12580178571466
    },
    {
      "x": 1472083200,
      "y": 500.5570125000003
    },
    {
      "x": 1472256000,
      "y": 498.6405696428575
    },
    {
      "x": 1472428800,
      "y": 495.2977839285717
    },
    {
      "x": 1472601600,
      "y": 493.97390892857175
    },
    {
      "x": 1472774400,
      "y": 493.46275714285736
    },
    {
      "x": 1472947200,
      "y": 501.9951035714288
    },
    {
      "x": 1473120000,
      "y": 511.38977678571456
    },
    {
      "x": 1473292800,
      "y": 524.7048142857146
    },
    {
      "x": 1473465600,
      "y": 530.3261803571432
    },
    {
      "x": 1473638400,
      "y": 530.1292982142861
    },
    {
      "x": 1473811200,
      "y": 527.3823303571431
    },
    {
      "x": 1473984000,
      "y": 522.9060982142861
    },
    {
      "x": 1474156800,
      "y": 523.1580589285717
    },
    {
      "x": 1474329600,
      "y": 522.7198285714289
    },
    {
      "x": 1474502400,
      "y": 519.4065000000003
    },
    {
      "x": 1474675200,
      "y": 517.7658035714289
    },
    {
      "x": 1474848000,
      "y": 516.3299392857145
    },
    {
      "x": 1475020800,
      "y": 518.5205410714289
    },
    {
      "x": 1475193600,
      "y": 519.6137035714289
    },
    {
      "x": 1475366400,
      "y": 521.8206339285719
    },
    {
      "x": 1475539200,
      "y": 523.2255232142861
    },
    {
      "x": 1475712000,
      "y": 524.4656660714288
    },
    {
      "x": 1475884800,
      "y": 525.8819000000003
    },
    {
      "x": 1476057600,
      "y": 527.5574839285717
    },
    {
      "x": 1476230400,
      "y": 534.6836053571433
    },
    {
      "x": 1476403200,
      "y": 540.4370882653064
    },
    {
      "x": 1476576000,
      "y": 547.0328000000004
    },
    {
      "x": 1476748800,
      "y": 547.0550857142861
    },
    {
      "x": 1476921600,
      "y": 544.7622278061228
    },
    {
      "x": 1477094400,
      "y": 545.910498214286
    },
    {
      "x": 1477267200,
      "y": 550.184698214286
    },
    {
      "x": 1477440000,
      "y": 559.9076464285716
    },
    {
      "x": 1477612800,
      "y": 571.6932785714289
    },
    {
      "x": 1477785600,
      "y": 587.193216071429
    },
    {
      "x": 1477958400,
      "y": 601.8599357142862
    },
    {
      "x": 1478131200,
      "y": 608.9448928571433
    },
    {
      "x": 1478304000,
      "y": 608.314341071429
    },
    {
      "x": 1478476800,
      "y": 606.2591767857147
    },
    {
      "x": 1478649600,
      "y": 607.7446017857146
    },
    {
      "x": 1478822400,
      "y": 610.6966642857146
    },
    {
      "x": 1478995200,
      "y": 609.2390750000004
    },
    {
      "x": 1479168000,
      "y": 607.4495071428577
    },
    {
      "x": 1479340800,
      "y": 613.8390000000004
    },
    {
      "x": 1479513600,
      "y": 626.9723589285718
    },
    {
      "x": 1479686400,
      "y": 634.1475375000002
    },
    {
      "x": 1479859200,
      "y": 636.5063803571431
    },
    {
      "x": 1480032000,
      "y": 633.6040750000003
    },
    {
      "x": 1480204800,
      "y": 632.7518250000004
    },
    {
      "x": 1480377600,
      "y": 629.234178571429
    },
    {
      "x": 1480550400,
      "y": 631.7636625000004
    },
    {
      "x": 1480723200,
      "y": 642.4977160714288
    },
    {
      "x": 1480896000,
      "y": 650.1679660714289
    },
    {
      "x": 1481068800,
      "y": 654.1387160714288
    },
    {
      "x": 1481241600,
      "y": 654.564573214286
    },
    {
      "x": 1481414400,
      "y": 657.7429125000003
    },
    {
      "x": 1481587200,
      "y": 662.4232321428576
    },
    {
      "x": 1481760000,
      "y": 664.1219857142861
    },
    {
      "x": 1481932800,
      "y": 668.2033428571433
    },
    {
      "x": 1482105600,
      "y": 671.4075571428575
    },
    {
      "x": 1482278400,
      "y": 680.7875464285718
    },
    {
      "x": 1482451200,
      "y": 708.1652946428574
    },
    {
      "x": 1482624000,
      "y": 736.8200250000002
    },
    {
      "x": 1482796800,
      "y": 766.8774964285717
    },
    {
      "x": 1482969600,
      "y": 791.0123375000003
    },
    {
      "x": 1483142400,
      "y": 810.0870892857146
    },
    {
      "x": 1483315200,
      "y": 836.6578910714288
    },
    {
      "x": 1483488000,
      "y": 867.949778571429
    },
    {
      "x": 1483660800,
      "y": 863.055178571429
    },
    {
      "x": 1483833600,
      "y": 833.236953571429
    },
    {
      "x": 1484006400,
      "y": 783.2843752551025
    },
    {
      "x": 1484179200,
      "y": 741.9732413265311
    },
    {
      "x": 1484352000,
      "y": 719.0059734693884
    },
    {
      "x": 1484524800,
      "y": 697.9310535714292
    },
    {
      "x": 1484697600,
      "y": 725.1088535714291
    },
    {
      "x": 1484870400,
      "y": 745.8533428571434
    },
    {
      "x": 1485043200,
      "y": 772.473171428572
    },
    {
      "x": 1485216000,
      "y": 777.2664750000005
    },
    {
      "x": 1485388800,
      "y": 780.063891071429
    },
    {
      "x": 1485561600,
      "y": 780.1411017857148
    },
    {
      "x": 1485734400,
      "y": 783.672314285715
    },
    {
      "x": 1485907200,
      "y": 803.0163250000006
    },
    {
      "x": 1486080000,
      "y": 828.8804267857149
    },
    {
      "x": 1486252800,
      "y": 858.6982571428578
    },
    {
      "x": 1486425600,
      "y": 877.2288000000008
    },
    {
      "x": 1486598400,
      "y": 878.3486428571435
    },
    {
      "x": 1486771200,
      "y": 872.9362178571434
    },
    {
      "x": 1486944000,
      "y": 862.4159678571434
    },
    {
      "x": 1487116800,
      "y": 861.7912000000007
    },
    {
      "x": 1487289600,
      "y": 873.6190303571436
    },
    {
      "x": 1487462400,
      "y": 889.1810908163272
    },
    {
      "x": 1487635200,
      "y": 915.5292627551028
    },
    {
      "x": 1487808000,
      "y": 944.7428859693886
    },
    {
      "x": 1487980800,
      "y": 975.6079632653068
    },
    {
      "x": 1488153600,
      "y": 998.0734288265312
    },
    {
      "x": 1488326400,
      "y": 1014.4769071428578
    },
    {
      "x": 1488499200,
      "y": 1045.7738860544225
    },
    {
      "x": 1488672000,
      "y": 1070.3680003401366
    },
    {
      "x": 1488844800,
      "y": 1085.1650988095244
    },
    {
      "x": 1489017600,
      "y": 1057.352473979592
    },
    {
      "x": 1489190400,
      "y": 1020.1834030612249
    },
    {
      "x": 1489363200,
      "y": 1013.5643280612251
    },
    {
      "x": 1489536000,
      "y": 1035.4083234693885
    },
    {
      "x": 1489708800,
      "y": 1034.5998293367354
    },
    {
      "x": 1489881600,
      "y": 965.2744471938781
    },
    {
      "x": 1490054400,
      "y": 917.409321428572
    },
    {
      "x": 1490227200,
      "y": 888.1805096938783
    },
    {
      "x": 1490400000,
      "y": 876.6414561224498
    },
    {
      "x": 1490572800,
      "y": 851.8273178571436
    },
    {
      "x": 1490745600,
      "y": 854.5683553571437
    },
    {
      "x": 1490918400,
      "y": 885.4532216836743
    },
    {
      "x": 1491091200,
      "y": 912.8936693877558
    },
    {
      "x": 1491264000,
      "y": 940.9951318877561
    },
    {
      "x": 1491436800,
      "y": 971.2713301020417
    },
    {
      "x": 1491609600,
      "y": 997.7721002551029
    },
    {
      "x": 1491782400,
      "y": 1016.7909591836743
    },
    {
      "x": 1491955200,
      "y": 1033.3840785714294
    },
    {
      "x": 1492128000,
      "y": 1032.4811760204088
    },
    {
      "x": 1492300800,
      "y": 1026.0901344387762
    },
    {
      "x": 1492473600,
      "y": 1022.7019244897965
    },
    {
      "x": 1492646400,
      "y": 1036.1780163265312
    },
    {
      "x": 1492819200,
      "y": 1057.3015239795925
    },
    {
      "x": 1492992000,
      "y": 1071.454276785715
    },
    {
      "x": 1493164800,
      "y": 1089.8697267857149
    },
    {
      "x": 1493337600,
      "y": 1112.2948272959188
    },
    {
      "x": 1493510400,
      "y": 1136.1652058673476
    },
    {
      "x": 1493683200,
      "y": 1176.2687112244905
    },
    {
      "x": 1493856000,
      "y": 1224.7288028061232
    },
    {
      "x": 1494028800,
      "y": 1282.6947647959191
    },
    {
      "x": 1494201600,
      "y": 1326.5859867346946
    },
    {
      "x": 1494374400,
      "y": 1393.4863066326536
    },
    {
      "x": 1494547200,
      "y": 1457.446848214286
    },
    {
      "x": 1494720000,
      "y": 1510.5538280612247
    },
    {
      "x": 1494892800,
      "y": 1507.4092125000004
    },
    {
      "x": 1495065600,
      "y": 1530.994767857143
    },
    {
      "x": 1495238400,
      "y": 1597.5938767857144
    },
    {
      "x": 1495411200,
      "y": 1694.027857142857
    },
    {
      "x": 1495584000,
      "y": 1831.2187386904761
    },
    {
      "x": 1495756800,
      "y": 1914.7548626700677
    },
    {
      "x": 1495929600,
      "y": 1924.7315751700671
    },
    {
      "x": 1496102400,
      "y": 1903.050421173469
    },
    {
      "x": 1496275200,
      "y": 1915.3351987244896
    },
    {
      "x": 1496448000,
      "y": 2024.6028859038774
    },
    {
      "x": 1496620800,
      "y": 2124.510159118163
    },
    {
      "x": 1496793600,
      "y": 2247.8041553214275
    },
    {
      "x": 1496966400,
      "y": 2340.4588574277536
    },
    {
      "x": 1497139200,
      "y": 2425.1325023257127
    },
    {
      "x": 1497312000,
      "y": 2404.793300765305
    },
    {
      "x": 1497484800,
      "y": 2300.3692043367337
    },
    {
      "x": 1497657600,
      "y": 2203.7526821428564
    },
    {
      "x": 1497830400,
      "y": 2163.572591632856
    },
    {
      "x": 1498003200,
      "y": 2240.2154041328563
    },
    {
      "x": 1498176000,
      "y": 2284.045901836938
    },
    {
      "x": 1498348800,
      "y": 2280.750424489795
    },
    {
      "x": 1498521600,
      "y": 2213.3693775510196
    },
    {
      "x": 1498694400,
      "y": 2169.378429336734
    },
    {
      "x": 1498867200,
      "y": 2142.2624385204076
    },
    {
      "x": 1499040000,
      "y": 2157.6999528061215
    },
    {
      "x": 1499212800,
      "y": 2170.436192776121
    },
    {
      "x": 1499385600,
      "y": 2197.5004394597945
    },
    {
      "x": 1499558400,
      "y": 2202.6365578271416
    },
    {
      "x": 1499731200,
      "y": 2133.6529765306113
    },
    {
      "x": 1499904000,
      "y": 2082.1334085034005
    },
    {
      "x": 1500076800,
      "y": 1960.929670408162
    },
    {
      "x": 1500249600,
      "y": 1871.1876012755088
    },
    {
      "x": 1500422400,
      "y": 1848.9527386904747
    },
    {
      "x": 1500595200,
      "y": 2039.0156452380938
    },
    {
      "x": 1500768000,
      "y": 2242.633043282312
    },
    {
      "x": 1500940800,
      "y": 2346.623185459183
    },
    {
      "x": 1501113600,
      "y": 2284.090300680271
    },
    {
      "x": 1501286400,
      "y": 2279.9459857142842
    },
    {
      "x": 1501459200,
      "y": 2322.741434013604
    },
    {
      "x": 1501632000,
      "y": 2360.0833574829917
    },
    {
      "x": 1501804800,
      "y": 2383.4861333333315
    },
    {
      "x": 1501977600,
      "y": 2506.099057142855
    },
    {
      "x": 1502150400,
      "y": 2714.7496452380933
    },
    {
      "x": 1502323200,
      "y": 2873.8584619047606
    },
    {
      "x": 1502496000,
      "y": 3018.805894897958
    },
    {
      "x": 1502668800,
      "y": 3239.3685882312907
    },
    {
      "x": 1502841600,
      "y": 3495.9649715646237
    },
    {
      "x": 1503014400,
      "y": 3635.0872861904745
    },
    {
      "x": 1503187200,
      "y": 3631.09874727891
    },
    {
      "x": 1503360000,
      "y": 3566.5270020408148
    },
    {
      "x": 1503532800,
      "y": 3574.5414210884333
    },
    {
      "x": 1503705600,
      "y": 3623.533923809521
    },
    {
      "x": 1503878400,
      "y": 3712.116619047616
    },
    {
      "x": 1504051200,
      "y": 3810.3604166666637
    },
    {
      "x": 1504224000,
      "y": 3944.1357380952354
    },
    {
      "x": 1504396800,
      "y": 4013.0736828571394
    },
    {
      "x": 1504569600,
      "y": 3960.1944195238057
    },
    {
      "x": 1504742400,
      "y": 3908.263776666663
    },
    {
      "x": 1504915200,
      "y": 3830.801239523805
    },
    {
      "x": 1505088000,
      "y": 3794.4050338095194
    },
    {
      "x": 1505260800,
      "y": 3634.9518004761862
    },
    {
      "x": 1505433600,
      "y": 3407.4640261904724
    },
    {
      "x": 1505606400,
      "y": 3254.8414271428533
    },
    {
      "x": 1505779200,
      "y": 3234.330300952377
    },
    {
      "x": 1505952000,
      "y": 3311.839524761901
    },
    {
      "x": 1506124800,
      "y": 3298.154185714282
    },
    {
      "x": 1506297600,
      "y": 3242.277849999996
    },
    {
      "x": 1506470400,
      "y": 3310.3353523809483
    },
    {
      "x": 1506643200,
      "y": 3450.574533333329
    },
    {
      "x": 1506816000,
      "y": 3600.6453380952335
    },
    {
      "x": 1506988800,
      "y": 3681.6921928571387
    },
    {
      "x": 1507161600,
      "y": 3705.7583761904716
    },
    {
      "x": 1507334400,
      "y": 3709.4303357142803
    },
    {
      "x": 1507507200,
      "y": 3809.4386714285656
    },
    {
      "x": 1507680000,
      "y": 3957.68706666666
    },
    {
      "x": 1507852800,
      "y": 4267.27881666666
    },
    {
      "x": 1508025600,
      "y": 4553.92191666666
    },
    {
      "x": 1508198400,
      "y": 4798.658065238089
    },
    {
      "x": 1508371200,
      "y": 4853.639829523804
    },
    {
      "x": 1508544000,
      "y": 4941.222847142852
    },
    {
      "x": 1508716800,
      "y": 5018.98650571428
    },
    {
      "x": 1508889600,
      "y": 5004.935177142851
    },
    {
      "x": 1509062400,
      "y": 4957.19401666666
    },
    {
      "x": 1509235200,
      "y": 4967.603524285707
    },
    {
      "x": 1509408000,
      "y": 5156.041965238087
    },
    {
      "x": 1509580800,
      "y": 5451.425305714278
    },
    {
      "x": 1509753600,
      "y": 5837.587078095231
    },
    {
      "x": 1509926400,
      "y": 6104.953456190469
    },
    {
      "x": 1510099200,
      "y": 6215.621841904755
    },
    {
      "x": 1510272000,
      "y": 6107.360632380945
    },
    {
      "x": 1510444800,
      "y": 5780.656144285708
    },
    {
      "x": 1510617600,
      "y": 5591.746813333328
    },
    {
      "x": 1510790400,
      "y": 5768.75048619047
    },
    {
      "x": 1510963200,
      "y": 6272.303648095231
    },
    {
      "x": 1511136000,
      "y": 6711.962321904755
    },
    {
      "x": 1511308800,
      "y": 6885.015804761898
    },
    {
      "x": 1511481600,
      "y": 6998.71631666666
    },
    {
      "x": 1511654400,
      "y": 7245.616342857136
    },
    {
      "x": 1511827200,
      "y": 7723.183324285709
    },
    {
      "x": 1512000000,
      "y": 8241.293609999993
    },
    {
      "x": 1512172800,
      "y": 8807.540648095232
    },
    {
      "x": 1512345600,
      "y": 9271.347523809516
    },
    {
      "x": 1512518400,
      "y": 10041.73509523809
    },
    {
      "x": 1512691200,
      "y": 11549.467666666662
    },
    {
      "x": 1512864000,
      "y": 12563.065831255708
    },
    {
      "x": 1513036800,
      "y": 13794.365355065233
    },
    {
      "x": 1513209600,
      "y": 13934.058259827136
    },
    {
      "x": 1513382400,
      "y": 14970.90742857142
    },
    {
      "x": 1513555200,
      "y": 15572.78338095237
    },
    {
      "x": 1513728000,
      "y": 15612.229761904751
    },
    {
      "x": 1513900800,
      "y": 14750.497142857133
    },
    {
      "x": 1514073600,
      "y": 13473.039285714276
    },
    {
      "x": 1514246400,
      "y": 12952.28119047618
    },
    {
      "x": 1514419200,
      "y": 12771.059523809514
    },
    {
      "x": 1514592000,
      "y": 12563.384857142848
    },
    {
      "x": 1514764800,
      "y": 12257.625571428562
    },
    {
      "x": 1514937600,
      "y": 12270.37057142856
    },
    {
      "x": 1515110400,
      "y": 12915.764999999989
    },
    {
      "x": 1515283200,
      "y": 13771.894714285703
    },
    {
      "x": 1515456000,
      "y": 13760.61495238094
    },
    {
      "x": 1515628800,
      "y": 13196.288857142845
    },
    {
      "x": 1515801600,
      "y": 12402.286809523797
    },
    {
      "x": 1515974400,
      "y": 12100.137666666655
    },
    {
      "x": 1516147200,
      "y": 11225.102333333321
    },
    {
      "x": 1516320000,
      "y": 10418.703476190465
    },
    {
      "x": 1516492800,
      "y": 9931.689952380939
    },
    {
      "x": 1516665600,
      "y": 9855.934571428557
    },
    {
      "x": 1516838400,
      "y": 9817.1967142857
    },
    {
      "x": 1517011200,
      "y": 9536.992476190464
    },
    {
      "x": 1517184000,
      "y": 9709.950714285704
    },
    {
      "x": 1517356800,
      "y": 9397.433095238086
    },
    {
      "x": 1517529600,
      "y": 8753.22857142856
    },
    {
      "x": 1517702400,
      "y": 7967.365952380941
    },
    {
      "x": 1517875200,
      "y": 7140.99095238094
    },
    {
      "x": 1518048000,
      "y": 6906.038809523797
    },
    {
      "x": 1518220800,
      "y": 6817.191176121512
    },
    {
      "x": 1518393600,
      "y": 7192.95522374056
    },
    {
      "x": 1518566400,
      "y": 7420.370342788178
    },
    {
      "x": 1518739200,
      "y": 7884.502119047606
    },
    {
      "x": 1518912000,
      "y": 8483.143785714272
    },
    {
      "x": 1519084800,
      "y": 9135.851761904749
    },
    {
      "x": 1519257600,
      "y": 9187.2157142857
    },
    {
      "x": 1519430400,
      "y": 8975.041809523795
    },
    {
      "x": 1519603200,
      "y": 8624.161809523794
    },
    {
      "x": 1519776000,
      "y": 8719.90252380951
    },
    {
      "x": 1519948800,
      "y": 9034.920238095225
    },
    {
      "x": 1520121600,
      "y": 9422.339285714274
    },
    {
      "x": 1520294400,
      "y": 9597.294999999987
    },
    {
      "x": 1520467200,
      "y": 9237.576857142843
    },
    {
      "x": 1520640000,
      "y": 8534.455476190462
    },
    {
      "x": 1520812800,
      "y": 8046.669999999985
    },
    {
      "x": 1520985600,
      "y": 7726.5359999999855
    },
    {
      "x": 1521158400,
      "y": 7591.285047619032
    },
    {
      "x": 1521331200,
      "y": 7194.263568139269
    },
    {
      "x": 1521504000,
      "y": 7207.51356813927
    },
    {
      "x": 1521676800,
      "y": 7314.604710996413
    },
    {
      "x": 1521849600,
      "y": 7483.764047619031
    },
    {
      "x": 1522022400,
      "y": 7400.3159523809345
    },
    {
      "x": 1522195200,
      "y": 7142.946428571411
    },
    {
      "x": 1522108800,
      "y": 7876.195
    },
    {
      "x": 1522281600,
      "y": 7172.28
    },
    {
      "x": 1522454400,
      "y": 6935.48
    },
    {
      "x": 1522627200,
      "y": 7035.848333333332
    },
    {
      "x": 1522800000,
      "y": 6787.761666666666
    },
    {
      "x": 1522972800,
      "y": 6603.876666666667
    },
    {
      "x": 1523145600,
      "y": 7017.656666666667
    },
    {
      "x": 1523318400,
      "y": 6787.571666666667
    },
    {
      "x": 1523491200,
      "y": 7847.845
    },
    {
      "x": 1523664000,
      "y": 8036.511051408333
    }
  ]
}
